Biostat 203B Homework 2
…
For each subject_id, let’s only keep the first ICU stay in the tibble icustays_tble. (Hint: slice_min and slice_max may take long. Think alternative ways to achieve the same function.)

icustays_tble <- icustays_tble %>% 
  group_by(subject_id) %>% 
  arrange(subject_id, intime) %>% 
  slice(1)
icustays_tble

# A tibble: 53,150 × 8
# Groups:   subject_id [53,150]
   subject_id  hadm_id  stay_id first_careunit       last_…¹ intime             
        <dbl>    <dbl>    <dbl> <chr>                <chr>   <dttm>             
 1   10000032 29079034 39553978 Medical Intensive C… Medica… 2180-07-23 14:00:00
 2   10000980 26913865 39765666 Medical Intensive C… Medica… 2189-06-27 08:42:00
 3   10001217 24597018 37067082 Surgical Intensive … Surgic… 2157-11-20 19:18:02
 4   10001725 25563031 31205490 Medical/Surgical In… Medica… 2110-04-11 15:52:22
 5   10001884 26184834 37510196 Medical Intensive C… Medica… 2131-01-11 04:20:05
 6   10002013 23581541 39060235 Cardiac Vascular In… Cardia… 2160-05-18 10:00:53
 7   10002155 23822395 33685454 Coronary Care Unit … Corona… 2129-08-04 12:45:00
 8   10002223 22494570 39638202 Trauma SICU (TSICU)  Trauma… 2158-01-15 08:01:49
 9   10002348 22725460 32610785 Neuro Intermediate   Neuro … 2112-11-30 23:24:00
10   10002428 28662225 33987268 Medical Intensive C… Medica… 2156-04-12 16:24:18
# … with 53,140 more rows, 2 more variables: outtime <dttm>, los <dbl>, and
#   abbreviated variable name ¹​last_careunit
…
Import admissions.csv.gz as a tibble admissions_tble.

admissions_tble <- read_csv("~/mimic/core/admissions.csv.gz")

Let’s only keep the admissions that have a match in icustays_tble according to subject_id and hadmi_id.

admissions_tble <- admissions_tble %>% 
  semi_join(icustays_tble, by = c("subject_id", "hadm_id"))
admissions_tble

# A tibble: 53,150 × 15
   subject…¹ hadm_id admittime           dischtime           deathtime          
       <dbl>   <dbl> <dttm>              <dttm>              <dttm>             
 1  10222255  2.82e7 2120-11-20 20:25:00 2120-11-22 13:00:00 NA                 
 2  14485852  2.87e7 2113-10-31 00:23:00 2113-11-04 16:50:00 NA                 
 3  18709254  2.38e7 2195-10-12 01:31:00 2195-10-12 13:51:00 NA                 
 4  16837807  2.35e7 2151-03-19 06:09:00 2151-03-19 07:20:00 2151-03-19 07:20:00
 5  17642680  2.77e7 2116-05-29 12:48:00 2116-05-30 12:31:00 NA                 
 6  18230965  2.13e7 2142-03-12 20:00:00 2142-03-17 15:26:00 NA                 
 7  17374121  2.77e7 2115-07-22 07:15:00 2115-07-24 17:50:00 NA                 
 8  13346506  2.85e7 2181-11-19 14:32:00 2181-11-22 18:47:00 NA                 
 9  18030332  2.47e7 2152-07-22 21:28:00 2152-07-27 16:49:00 NA                 
10  14328744  2.96e7 2126-08-20 09:26:00 2126-08-21 11:36:00 NA                 
# … with 53,140 more rows, 10 more variables: admission_type <chr>,
#   admission_location <chr>, discharge_location <chr>, insurance <chr>,
#   language <chr>, marital_status <chr>, ethnicity <chr>, edregtime <dttm>,
#   edouttime <dttm>, hospital_expire_flag <dbl>, and abbreviated variable name
#   ¹​subject_id
…
Import patients.csv.gz (https://mimic.mit.edu/docs/iv/modules/core/patients/) as a tibble patients_tble and only keep the patients who have a match in icustays_tble (according to subject_id).

patients_tble <- read_csv("~/mimic/core/patients.csv.gz") %>% 
  semi_join(icustays_tble, by = "subject_id")
patients_tble

# A tibble: 53,150 × 6
   subject_id gender anchor_age anchor_year anchor_year_group dod       
        <dbl> <chr>       <dbl>       <dbl> <chr>             <date>    
 1   10018928 F              31        2125 2008 - 2010       NA        
 2   10076543 F              78        2187 2008 - 2010       NA        
 3   10098428 F              85        2119 2008 - 2010       NA        
 4   10127185 M              60        2141 2008 - 2010       NA        
 5   10148710 M              67        2137 2008 - 2010       NA        
 6   10156486 F              75        2124 2017 - 2019       NA        
 7   10159585 M              59        2146 2008 - 2010       2154-04-16
 8   10171525 F              27        2115 2014 - 2016       NA        
 9   10196360 M              57        2118 2011 - 2013       NA        
10   10227823 M              45        2156 2014 - 2016       NA        
# … with 53,140 more rows
…
